<svg width="53" height="53" viewBox="0 0 53 53" fill="none" xmlns="http://www.w3.org/2000/svg">
<rect x="0.237549" y="0.0843506" width="52.0695" height="52.0695" rx="8.5" fill="#222222"/>
<path d="M38.2341 36.1108C38.2341 37.9762 36.974 39.4883 35.4196 39.4883L18.5321 39.4883C16.9777 39.4883 15.7176 37.9762 15.7176 36.1108L15.7176 32.7333C15.7176 27.1372 19.4978 22.6009 24.1613 22.6009L29.7904 22.6009C34.4537 22.6009 38.2341 27.1372 38.2341 32.7333L38.2341 36.1108Z" fill="#393939"/>
<circle cx="27.1972" cy="18.0271" r="6.6846" fill="#7E7E7E"/>
</svg>
